bad-widgets.yaml: In implict-null:
bad-widgets.yaml:1:1: error: expected widget to be an object but found null
     1 | implict-null:
       | ^
bad-widgets.yaml: In explicit-null:
bad-widgets.yaml:2:1: error: expected widget to be an object but found null
     2 | explicit-null: null
       | ^
bad-widgets.yaml: In integer:
bad-widgets.yaml:3:1: error: expected widget to be an object but found a number (integer)
     3 | integer: 3
       | ^
bad-widgets.yaml: In pi:
bad-widgets.yaml:4:1: error: expected widget to be an object but found a number (floating point)
     4 | pi: 3.1415
       | ^
bad-widgets.yaml: In explicit-string:
bad-widgets.yaml:5:1: error: expected widget to be an object but found a string
     5 | explicit-string: yup
       | ^
bad-widgets.yaml: In is-true:
bad-widgets.yaml:6:1: error: expected widget to be an object but found true
     6 | is-true: true
       | ^
bad-widgets.yaml: In is-false:
bad-widgets.yaml:7:1: error: expected widget to be an object but found false
     7 | is-false: false
       | ^
bad-widgets.yaml: In list:
bad-widgets.yaml:9:3: error: expected widget to be an object but found an array
     9 |   - first
       |   ^
bad-widgets.yaml: In bad-type-widget:
bad-widgets.yaml:12:3: error: unknown widget type cpu; will become a BasicWidget (valid widget types are: button, canvas, card, deck, holder, label, pile, spinner, and timer)
    12 |   type: cpu
       |   ^
bad-widgets.yaml: In EOF:
bad-widgets.yaml:13:1: error: expected widget to be an object but found null
    13 | EOF:
       | ^
10 errors
