decks.yaml: In DeckMissingEverything:
decks.yaml:2:3: warning: deck lacks required cardTypes
     2 |   type: deck
       |   ^
decks.yaml:2:3: warning: deck lacks required faceTemplates
     2 |   type: deck
       |   ^
decks.yaml: In DeckNonsense.cardTypes:
decks.yaml:6:3: error: expected deck to be an object but found true
     6 |   cardTypes: true
       |   ^
decks.yaml: In DeckNonsense.faceTemplates:
decks.yaml:7:3: error: expected deck to be an array but found true
     7 |   faceTemplates: true
       |   ^
decks.yaml: In cardInstanceNonsense.deck:
decks.yaml:50:3: error: expected card to be a string but found true
    50 |   deck: true
       |   ^
decks.yaml: In cardInstanceNonsense.cardType:
decks.yaml:52:13: error: expected card to be a string but found an object
    52 |   cardType: {}
       |             ^
decks.yaml: In cardInstanceBadDeck.deck:
decks.yaml:60:9: warning: deck refers to widget InvalidDeck, but no such widget exists
    60 |   deck: InvalidDeck
       |         ^~~~~~~~~~~
decks.yaml: In cardInstanceBadType:
decks.yaml:65:3: warning: card expected deck DeckBasic to contain cardType Joker, but it doesn't
    65 |   deck: DeckBasic
       |   ^
decks.yaml: In cardMissingAll:
decks.yaml:70:3: warning: card lacks required deck
    70 |   type: card
       |   ^
decks.yaml:70:3: warning: card lacks required cardType
    70 |   type: card
       |   ^
6 warnings
4 errors
