function-select.yaml: In someobject.clickRoutine.1.unknown-property:
function-select.yaml:8:7: warning:  SELECT: property "unknown-property" is not known and will be ignored
     8 |       unknown-property: true
       |       ^~~~~~~~~~~~~~~~
function-select.yaml: In someobject.clickRoutine.1.max:
function-select.yaml:7:7: warning: SELECT: max must be at least 0, but is -1
     7 |       max: -1
       |       ^
function-select.yaml: In someobject.clickRoutine.1.mode:
function-select.yaml:6:7: error: SELECT: unknown mode hat (valid modes are: set or add)
     6 |       mode: hat
       |       ^
function-select.yaml: In someobject.clickRoutine.1.relation:
function-select.yaml:5:7: error: SELECT: unknown relation <> (valid relations are: <, <=, ==, ===, !=, >=, >, or in)
     5 |       relation: '<>'
       |       ^
function-select.yaml: In someobject.clickRoutine.1:
function-select.yaml:4:7: warning: max is {maxval}, but a positive value is expected
     4 |     - func: SELECT
       |       ^
function-select.yaml: In someobject.clickRoutine.2.collection:
function-select.yaml:14:7: error: SELECT: expected collection to be a string but found true
    14 |       collection: true
       |       ^
function-select.yaml: In someobject.clickRoutine.2.mode:
function-select.yaml:15:7: error: SELECT: expected mode to be a string but found true
    15 |       mode: true
       |       ^
function-select.yaml: In someobject.clickRoutine.2.property:
function-select.yaml:12:7: error: SELECT: expected property to be a string but found true
    12 |       property: true
       |       ^
function-select.yaml: In someobject.clickRoutine.2.relation:
function-select.yaml:10:7: error: SELECT: expected relation to be a string but found true
    10 |       relation: true
       |       ^
function-select.yaml: In someobject.clickRoutine.2.sortBy:
function-select.yaml:16:7: error: SELECT: expected sortBy to be an object but found true
    16 |       sortBy: true
       |       ^
function-select.yaml: In someobject.clickRoutine.2.type:
function-select.yaml:11:7: error: SELECT: expected type to be a string but found true
    11 |       type: true
       |       ^
function-select.yaml: In someobject.clickRoutine.3:
function-select.yaml:17:7: warning: when "relation" is "in", "value" must be a list, but it is a string
    17 |     - func: SELECT
       |       ^
function-select.yaml: In someobject.clickRoutine.4:
function-select.yaml:20:7: warning: when "relation" is "in", "value" must be a list, but it is not present
    20 |     - func: SELECT
       |       ^
5 warnings
8 errors
