function-delete.yaml: In mainobj.clickRoutine.1.collection:
function-delete.yaml:5:7: error: DELETE: expected collection to be a string but found true
     5 |       collection: true
       |       ^
function-delete.yaml: In mainobj.clickRoutine.2.hijinks:
function-delete.yaml:8:7: warning:  DELETE: property "hijinks" is not known and will be ignored
     8 |       hijinks: 33
       |       ^~~~~~~
1 warnings
1 errors
